97203,OR
10940,NY
08740,NJ
11420,NY
31791,GA
33315,FL
92410,CA
01905,MA
07104,NJ
08831,NJ
10468,NY
19726,DE
33122,FL
33166,FL
80220,CO
01721,MA
01801,MA
01876,MA
01902,MA
01930,MA
02019,MA
02111,MA
02116,MA
02126,MA
02130,MA
02141,MA
02148,MA
02169,MA
02190,MA
02301,MA
02445,MA
02446,MA
02554,MA
02666,MA
02826,RI
02904,RI
02905,RI
03062,NH
03079,NH
04345,ME
04426,ME
04619,ME
05667,VT
06010,CT
06066,CT
06084,CT
06108,CT
06119,CT
06405,CT
06450,CT
06451,CT
06455,CT
06512,CT
06606,CT
07036,NJ
07047,NJ
07055,NJ
07060,NJ
07067,NJ
07071,NJ
07073,NJ
07090,NJ
07092,NJ
07094,NJ
07109,NJ
07201,NJ
07203,NJ
07205,NJ
07631,NJ
07644,NJ
07650,NJ
07657,NJ
07726,NJ
07751,NJ
07866,NJ
08094,NJ
08104,NJ
08204,NJ
08540,NJ
08701,NJ
08753,NJ
08831,NJ
08861,NJ
10012,NY
10017,NY
10018,NY
10021,NY
10022,NY
10027,NY
10034,NY
10305,NY
10306,NY
10451,NY
10453,NY
10463,NY
10466,NY
10472,NY
10952,NY
11106,NY
11203,NY
11204,NY
11206,NY
11213,NY
11214,NY
11215,NY
11219,NY
11223,NY
11225,NY
11226,NY
11228,NY
11360,NY
11367,NY
11377,NY
11385,NY
11419,NY
11432,NY
11530,NY
11772,NY
11798,NY
12065,NY
12201,UT
13404,NY
13669,NY
14224,NY
15063,PA
15147,PA
15206,PA
15322,PA
18657,PA
18940,PA
19032,PA
19041,PA
19066,PA
19132,PA
19142,PA
19703,DE
19711,DE
19720,DE
19901,DE
20020,DC
20036,DC
20120,VA
20152,VA
20722,MD
20782,MD
20815,MD
20895,MD
21201,MD
21213,MD
21236,MD
23059,VA
23435,VA
23464,VA
23503,VA
23608,VA
23924,VA
25607,WV
27406,NC
27591,NC
27613,NC
28401,NC
28543,NC
28625,NC
29485,SC
29488,SC
29536,SC
30041,GA
30115,GA
30338,GA
30625,GA
30666,GA
30677,GA
31089,GA
31709,GA
32127,FL
32246,FL
32405,FL
32408,FL
32693,FL
32763,FL
32779,FL
32784,FL
32819,FL
32824,FL
32920,FL
33009,FL
33023,FL
33024,FL
33054,FL
33069,FL
33122,FL
33126,FL
33131,FL
33155,FL
33160,FL
33166,FL
33172,FL
33174,FL
33175,FL
33178,FL
33181,FL
33185,FL
33190,FL
33324,FL
33444,FL
33618,FL
33647,FL
33971,FL
33991,FL
34238,FL
34286,FL
34741,FL
34787,FL
35034,AL
35042,AL
35215,AL
35549,AL
35806,AL
37069,TN
37082,TN
38652,MS
39090,MS
39212,MS
39307,MS
39452,MS
40065,KY
41051,KY
41101,KY
43209,OH
44092,OH
44132,OH
44202,OH
44320,OH
45066,OH
45177,OH
45233,OH
45331,OH
46259,IN
46635,IN
47130,IN
47712,IN
48009,MI
48111,MI
48210,MI
48450,MI
49024,MI
49316,MI
49503,MI
50131,IA
50644,IA
50841,IA
52749,IA
53066,WI
53188,WI
53209,WI
53216,WI
54656,WI
55066,MN
55070,MN
55121,MN
55406,MN
56098,MN
56297,MN
56751,MN
57350,SD
58271,ND
58503,ND
60062,IL
60076,IL
60415,IL
60466,IL
60506,IL
60561,IL
60611,IL
60619,IL
60622,IL
60625,IL
60633,IL
60655,IL
60901,IL
60914,IL
61254,IL
61342,IL
62220,IL
62821,IL
63122,MO
63334,MO
64118,MO
64138,MO
65803,MO
68137,NE
70003,LA
70092,LA
70094,LA
70128,LA
70443,LA
71108,LA
71343,LA
71923,AR
72076,AR
72110,AR
72855,AR
73750,OK
74080,OK
75006,TX
75070,TX
75401,TX
75482,TX
75861,TX
75939,TX
76437,TX
76825,TX
77015,TX
77030,TX
77036,TX
77084,TX
77090,TX
77365,TX
77429,TX
77469,TX
77520,TX
77546,TX
77833,TX
78014,TX
78042,TX
78218,TX
78557,TX
78573,TX
78717,TX
78852,TX
79356,TX
79403,TX
79906,TX
80204,CO
80224,CO
80503,CO
80538,CO
80602,CO
82718,WY
83442,ID
84010,UT
84025,UT
84062,UT
84339,UT
85035,AZ
85207,AZ
85234,AZ
85621,AZ
85705,AZ
85710,AZ
89052,NV
89109,NV
89117,NV
90007,CA
90011,CA
90020,CA
90024,CA
90032,CA
90039,CA
90044,CA
90065,CA
90201,CA
90240,CA
90255,CA
90270,CA
90303,CA
90305,CA
90638,CA
90640,CA
90745,CA
90746,CA
90815,CA
91201,CA
91204,CA
91301,CA
91321,CA
91351,CA
91367,CA
91401,CA
91733,CA
91744,CA
91745,CA
91746,CA
91748,CA
91801,CA
91911,CA
92020,CA
92173,CA
92346,CA
92543,CA
92683,CA
92821,CA
92833,CA
92840,CA
92881,CA
93041,CA
93306,CA
93610,CA
93722,CA
93727,CA
93927,CA
94014,CA
94116,CA
94305,CA
94590,CA
94597,CA
94619,CA
94806,CA
95014,CA
95050,CA
95380,CA
95608,CA
95901,CA
95955,CA
96002,CA
96080,CA
97008,OR
97045,OR
97062,OR
97124,OR
97209,OR
97218,OR
97220,OR
97230,OR
97267,OR
97502,OR
97701,OR
98177,WA
98188,WA
98424,WA
98686,WA
99344,WA
99362,WA
01464,MA
01467,MA
01468,MA
01469,MA
01469,NH
01471,MA
01473,MA
01474,MA
01475,MA
01501,MA
01503,MA
01504,MA
01504,NY
01505,MA
01506,MA
01507,MA
01508,MA
01510,MA
01515,MA
01516,MA
01518,MA
01519,MA
01520,MA
01520,PA
01521,MA
01522,MA
01523,MA
01524,MA
01525,MA
01526,MA
01527,MA
01529,MA
01531,MA
01532,MA
01532,NH
08735,NJ
08736,NJ
08738,NJ
08739,NJ
08740,NJ
08741,NJ
08741,PA
08742,NJ
08750,NJ
08751,NJ
08752,NJ
08753,NJ
08754,NJ
08755,MA
08755,NJ
08756,NJ
08757,NJ
08757,NY
08758,NJ
12871,NY
12873,NY
17032,PA
17033,PA
17034,PA
17035,PA
17036,PA
17037,PA
17038,PA
17040,PA
17041,PA
17042,PA
17043,PA
17044,AL
17044,PA
17045,PA
17046,AR
17046,PA
17047,PA
17048,PA
17049,PA
17050,MD
17050,NC
17050,PA
22199,VA
34218,FL
34219,FL
34219,GA
34220,FL
34220,TX
34221,FL
34221,GA
34221,OH
34222,CO
34222,FL
34222,PA
34223,FL
34224,FL
34228,FL
34229,FL
34229,NJ
34230,FL
34231,DC
34231,FL
34232,FL
34232,GA
34233,FL
34234,AZ
34234,FL
34235,FL
34236,FL
34237,FL
34238,FL
34238,NJ
34239,FL
34240,FL
34241,FL
34241,GA
34242,FL
34242,NY
34243,FL
34243,NY
35080,AL
35080,DC
35080,FL
35080,TX
35083,AL
35085,AL
35087,AL
35089,AL
35091,AL
